TO DO

* 2ch
- Strict
- DHTML bug
- CSS $B<ALd(B
* W3C
- www/TR/ 
-- CSS, XSL, RDF $B7O$O$=$l$>$l9`$r$?$F$k$Y$-(B?
-- /TR/ $B0J30$K$"$k8E$$(B TR
* ISO/IEC SGML WG
* WAP
* DoCoMo, $BB>7HBS(B
* UA grips
* CSS Laboratory
* Netscape, Mozilla.org
* $B$M$3$a$7$K$C$-(B
* Piro
* XUL $B7O(B
* fj.net.www, fj.text.sgml
* Usenet $B$N(B WWW, SGML $B4X78(B
* IETF I-D
* OASIS

* list.w3.org $BMQ(B filter
* 2ch dat $BMQ(B filter
* DTD $BMQ(B filter ($BI,MW(B?)
* HTML/XHTML $B9=J82r@O(B filter
* RDF/XML filter

* element:p, attr:href $B$N$h$&$J8!:w$,$G$-$?$i$$$$(B ($B$,B?J,L5M}(B)
